{
  "content": [
    {
      "emailId": "honey@test.com",
      "firstName": "Pavan",
      "lastName": "Kumar",
      "shortName": "hrao",
      "designation": "Seniour Java Developer",
      "personalEmailId": "hro@gmail.com",
      "skills": "JAVA, ATG, Spring boot & Microservices",
      "startDate": null,
      "endDate": null,
      "panNumber": "ABCDEF",
      "aadharNumber": "TESTAADHAR",
      "passportNumber": "PASSPORTNO",
      "pfAccountNumber": "PFACCNO",
      "panCardPath": null,
      "aadharPath": null,
      "passportPath": null,
      "photoPath": null,
      "hikeLetterPath": null,
      "promotionLatterPath": null,
      "resumePath": null,
      "previousCompany": [],
      "presentAddress": null,
      "emergencyContact": null,
      "projects": [],
      "employeeDeleted": false,
      "uan": "UAN007",
      "permanentAddress": null
    },
    {
      "emailId": "honey@test.com",
      "firstName": "Pavan",
      "lastName": "Kumar",
      "shortName": "hrao",
      "designation": "Seniour Java Developer",
      "personalEmailId": "hro@gmail.com",
      "skills": "JAVA, ATG, Spring boot & Microservices",
      "startDate": null,
      "endDate": null,
      "panNumber": "ABCDEF",
      "aadharNumber": "TESTAADHAR",
      "passportNumber": "PASSPORTNO",
      "pfAccountNumber": "PFACCNO",
      "panCardPath": null,
      "aadharPath": null,
      "passportPath": null,
      "photoPath": null,
      "hikeLetterPath": null,
      "promotionLatterPath": null,
      "resumePath": null,
      "previousCompany": [],
      "presentAddress": null,
      "emergencyContact": null,
      "projects": [],
      "employeeDeleted": false,
      "uan": "UAN007",
      "permanentAddress": null
    },
    {
      "emailId": "honey@test.com",
      "firstName": "Pavan",
      "lastName": "Kumar",
      "shortName": "hrao",
      "designation": "Seniour Java Developer",
      "personalEmailId": "hro@gmail.com",
      "skills": "JAVA, ATG, Spring boot & Microservices",
      "startDate": null,
      "endDate": null,
      "panNumber": "ABCDEF",
      "aadharNumber": "TESTAADHAR",
      "passportNumber": "PASSPORTNO",
      "pfAccountNumber": "PFACCNO",
      "panCardPath": null,
      "aadharPath": null,
      "passportPath": null,
      "photoPath": null,
      "hikeLetterPath": null,
      "promotionLatterPath": null,
      "resumePath": null,
      "previousCompany": [],
      "presentAddress": null,
      "emergencyContact": null,
      "projects": [],
      "employeeDeleted": false,
      "uan": "UAN007",
      "permanentAddress": null
    },
    {
      "emailId": "honey@test.com",
      "firstName": "Pavan",
      "lastName": "Kumar",
      "shortName": "hrao",
      "designation": "Seniour Java Developer",
      "personalEmailId": "hro@gmail.com",
      "skills": "JAVA, ATG, Spring boot & Microservices",
      "startDate": null,
      "endDate": null,
      "panNumber": "ABCDEF",
      "aadharNumber": "TESTAADHAR",
      "passportNumber": "PASSPORTNO",
      "pfAccountNumber": "PFACCNO",
      "panCardPath": null,
      "aadharPath": null,
      "passportPath": null,
      "photoPath": null,
      "hikeLetterPath": null,
      "promotionLatterPath": null,
      "resumePath": null,
      "previousCompany": [],
      "presentAddress": null,
      "emergencyContact": null,
      "projects": [],
      "employeeDeleted": false,
      "uan": "UAN007",
      "permanentAddress": null
    },
    {
      "emailId": "honey@test.com",
      "firstName": "Pavan",
      "lastName": "Kumar",
      "shortName": "hrao",
      "designation": "Seniour Java Developer",
      "personalEmailId": "hro@gmail.com",
      "skills": "JAVA, ATG, Spring boot & Microservices",
      "startDate": null,
      "endDate": null,
      "panNumber": "ABCDEF",
      "aadharNumber": "TESTAADHAR",
      "passportNumber": "PASSPORTNO",
      "pfAccountNumber": "PFACCNO",
      "panCardPath": null,
      "aadharPath": null,
      "passportPath": null,
      "photoPath": null,
      "hikeLetterPath": null,
      "promotionLatterPath": null,
      "resumePath": null,
      "previousCompany": [],
      "presentAddress": null,
      "emergencyContact": null,
      "projects": [],
      "employeeDeleted": false,
      "uan": "UAN007",
      "permanentAddress": null
    },
    {
      "emailId": "honey@test.com",
      "firstName": "Pavan",
      "lastName": "Kumar",
      "shortName": "hrao",
      "designation": "Seniour Java Developer",
      "personalEmailId": "hro@gmail.com",
      "skills": "JAVA, ATG, Spring boot & Microservices",
      "startDate": null,
      "endDate": null,
      "panNumber": "ABCDEF",
      "aadharNumber": "TESTAADHAR",
      "passportNumber": "PASSPORTNO",
      "pfAccountNumber": "PFACCNO",
      "panCardPath": null,
      "aadharPath": null,
      "passportPath": null,
      "photoPath": null,
      "hikeLetterPath": null,
      "promotionLatterPath": null,
      "resumePath": null,
      "previousCompany": [],
      "presentAddress": null,
      "emergencyContact": null,
      "projects": [],
      "employeeDeleted": false,
      "uan": "UAN007",
      "permanentAddress": null
    }
  ],
  "pageable": {
    "sort": {
      "sorted": true,
      "unsorted": false,
      "empty": false
    },
    "offset": 0,
    "pageNumber": 0,
    "pageSize": 10,
    "unpaged": false,
    "paged": true
  },
  "totalPages": 2,
  "last": false,
  "totalElements": 12,
  "size": 10,
  "number": 0,
  "sort": {
    "sorted": true,
    "unsorted": false,
    "empty": false
  },
  "numberOfElements": 10,
  "first": true,
  "empty": false
}
